{
    "parent": "cobblemon:recipes/root",
    "criteria": {
        "has_apricorn": {
            "conditions": {
                "items": [
                    {
                        "tag": "cobblemon:apricorns"
                    }
                ]
            },
            "trigger": "minecraft:inventory_changed"
        },
        "has_recipe": {
            "conditions": {
                "recipe": "cobblepedia:cobblepedia"
            },
            "trigger": "minecraft:recipe_unlocked"
        }
    },
    "requirements": [
        [
            "has_apricorn",
            "has_recipe"
        ]
    ],
    "rewards": {
        "recipes": [
            "cobblepedia:cobblepedia"
        ]
    }
}