{
    "name": "book.cobblepedia.entries.apricorn",
    "category": "cobblepedia:apricorns",
    "icon": "cobblemon:red_apricorn",
    "sortnum": 1,
    "pages": [
        {
            "type": "patchouli:text",
            "text": "book.cobblepedia.entries.apricorn.text"
        },
        {
            "type": "patchouli:quest",
            "trigger": "cobblemon:harvest_apricorn",
            "anchor": "advancement",
            "title": "advancements.cobblemon.harvest_apricorn",
            "text": "advancements.cobblemon.harvest_apricorn.description"
        },
        {
            "type": "patchouli:text",
            "title": "book.cobblepedia.pages.obtaining",
            "text": "book.cobblepedia.entries.apricorn.obtaining"
        },
        {
            "type": "patchouli:text",
            "title": "book.cobblepedia.pages.farming",
            "text": "book.cobblepedia.entries.apricorn.farming"
        },
        {
            "type": "patchouli:text",
            "title": "book.cobblepedia.pages.farming",
            "text": "book.cobblepedia.entries.apricorn.farming2"
        },
        {
            "type": "patchouli:text",
            "title": "book.cobblepedia.pages.composting",
            "text": "book.cobblepedia.entries.apricorn.composting"
        },
        {
            "type": "patchouli:crafting",
            "recipe": "cobblemon:apricorn_bowl",
            "title": "book.cobblepedia.pages.ingredient",
            "text": "book.cobblepedia.entries.apricorn.apricorn_bowl"
        },
        {
            "type": "patchouli:relations",
            "entries": [
                "cobblepedia:red_apricorn",
                "cobblepedia:yellow_apricorn",
                "cobblepedia:green_apricorn",
                "cobblepedia:blue_apricorn",
                "cobblepedia:pink_apricorn",
                "cobblepedia:white_apricorn",
                "cobblepedia:black_apricorn"
            ]
        }
    ]
}
