{
    "name": "block.cobblemon.apricorn_fence",
    "category": "cobblepedia:apricorn_set",
    "icon": "cobblemon:apricorn_fence",
    "pages": [
        {
            "type": "patchouli:spotlight",
            "item": "cobblemon:apricorn_fence",
            "title": "block.cobblemon.apricorn_fence",
            "text": "book.cobblepedia.entries.apricorn_fence.text"
        },
        {
            "type": "patchouli:crafting",
            "recipe": "cobblemon:apricorn_fence",
            "title": "book.cobblepedia.pages.crafting",
            "text": "book.cobblepedia.entries.apricorn_fence.crafting"
        }
    ]
}
