{
    "name": "block.cobblemon.apricorn_slab",
    "category": "cobblepedia:apricorn_set",
    "icon": "cobblemon:apricorn_slab",
    "pages": [
        {
            "type": "patchouli:spotlight",
            "item": "cobblemon:apricorn_slab",
            "title": "block.cobblemon.apricorn_slab",
            "text": "book.cobblepedia.entries.apricorn_slab.text"
        },
        {
            "type": "patchouli:crafting",
            "recipe": "cobblemon:apricorn_slab",
            "title": "book.cobblepedia.pages.crafting",
            "text": "book.cobblepedia.entries.apricorn_slab.crafting"
        }
    ]
}
