{
    "name": "block.cobblemon.dawn_stone_ore",
    "category": "cobblepedia:evolution_stone_ores",
    "icon": "cobblemon:dawn_stone_ore",
    "sortnum": 1,
    "pages": [
        {
            "type": "patchouli:spotlight",
            "item": "cobblemon:dawn_stone_ore",
            "link_recipe": true,
            "title": "block.cobblemon.dawn_stone_ore",
            "text": "book.cobblepedia.entries.dawn_stone_ore.text"
        },
        {
            "type": "patchouli:text",
            "title": "book.cobblepedia.pages.generation",
            "text": "book.cobblepedia.entries.dawn_stone_ore.generation"
        },
        {
            "type": "patchouli:relations",
            "entries": [
                "cobblepedia:dawn_stone",
                "cobblepedia:deepslate_dawn_stone_ore",
                "cobblepedia:evolution_stone_mining"
            ]
        }
    ]
}
