{
    "name": "item.cobblemon.green_apricorn",
    "category": "cobblepedia:apricorn_colors",
    "icon": "cobblemon:green_apricorn",
    "sortnum": 1,
    "pages": [
        {
            "type": "patchouli:spotlight",
            "item": "cobblemon:green_apricorn",
            "link_recipe": true,
            "title": "item.cobblemon.green_apricorn",
            "text": "book.cobblepedia.entries.green_apricorn.text"
        },
        {
            "type": "patchouli:smelting",
            "recipe": "cobblemon:green_apricorn_smelt_to_dye",
            "title": "book.cobblepedia.pages.smelting"
        }
    ]
}
