{
    "name": "book.cobblepedia.entries.levelup_command",
    "category": "cobblepedia:commands",
    "icon": "cobblemon:rare_candy",
    "pages": [
        {
            "type": "patchouli:text",
            "text": "book.cobblepedia.entries.levelup_command.text"
        },
        {
            "type": "patchouli:text",
            "title": "book.cobblepedia.pages.usage",
            "text": "book.cobblepedia.entries.levelup_command.usage"
        }
    ]
}
