{
    "name": "item.cobblemon.metal_coat",
    "category": "cobblepedia:evolution_items",
    "icon": "cobblemon:metal_coat",
    "sortnum": 1,
    "pages": [
        {
            "type": "patchouli:spotlight",
            "item": "cobblemon:metal_coat",
            "title": "item.cobblemon.metal_coat",
            "text": "book.cobblepedia.entries.metal_coat.text"
        },
        {
            "type": "patchouli:crafting",
            "recipe": "cobblemon:metal_coat",
            "title": "book.cobblepedia.pages.crafting"
        },
        {
            "type": "cobblepedia:dropping",
            "title": "book.cobblepedia.pages.dropping",
            "drop_item": "cobblemon:metal_coat",
            "pokemon": "cobblemon:forretress",
            "rate": "5",
            "drop_item2": "cobblemon:metal_coat",
            "pokemon2": "cobblemon:steelix",
            "rate2": "10",
            "drop_item3": "cobblemon:metal_coat",
            "pokemon3": "cobblemon:scizor",
            "rate3": "10"
        },
        {
            "type": "patchouli:text",
            "title": "book.cobblepedia.pages.holding",
            "text": "book.cobblepedia.entries.metal_coat.holding"
        },
        {
            "type": "cobblepedia:evolving",
            "item": "cobblemon:metal_coat",
            "link_cable": true,
            "holding_item3": "cobblemon:metal_coat",
            "using_item3": "cobblemon:link_cable",
            "pokemon3": "cobblemon:onix",
            "evolved_pokemon3": "cobblemon:steelix",
            "holding_item4": "cobblemon:metal_coat",
            "using_item4": "cobblemon:link_cable",
            "pokemon4": "cobblemon:scyther",
            "evolved_pokemon4": "cobblemon:scizor"
        }
    ]
}
