{
    "name": "item.cobblemon.net_ball",
    "category": "cobblepedia:poke_ball_types",
    "icon": "cobblemon:net_ball",
    "sortnum": 20,
    "pages": [
        {
            "type": "patchouli:spotlight",
            "item": "cobblemon:net_ball",
            "text": "book.cobblepedia.entries.net_ball.text"
        },
        {
            "type": "patchouli:crafting",
            "recipe": "cobblemon:net_ball",
            "title": "book.cobblepedia.pages.crafting",
            "text": "book.cobblepedia.entries.net_ball.crafting"
        }
    ]
}
