{
    "name": "item.cobblemon.rare_candy",
    "category": "cobblepedia:consumables",
    "icon": "cobblemon:rare_candy",
    "sortnum": 1,
    "pages": [
        {
            "type": "patchouli:spotlight",
            "item": "cobblemon:rare_candy",
            "text": "book.cobblepedia.entries.rare_candy.text"
        },
        {
            "type": "patchouli:text",
            "title": "book.cobblepedia.pages.using",
            "text": "book.cobblepedia.entries.rare_candy.using"
        }
    ]
}
