{
    "name": "item.cobblemon.red_apricorn_seed",
    "category": "cobblepedia:apricorn_seeds",
    "icon": "cobblemon:red_apricorn_seed",
    "sortnum": 1,
    "pages": [
        {
            "type": "patchouli:spotlight",
            "item": "cobblemon:red_apricorn_seed",
            "link_recipe": true,
            "title": "item.cobblemon.red_apricorn_seed",
            "text": "book.cobblepedia.entries.red_apricorn_seed.text"
        }
    ]
}
