{
    "name": "book.cobblepedia.entries.spawnpokemon_command",
    "category": "cobblepedia:commands",
    "icon": "cobblemon:lucky_egg",
    "pages": [
        {
            "type": "patchouli:text",
            "text": "book.cobblepedia.entries.spawnpokemon_command.text"
        },
        {
            "type": "patchouli:text",
            "title": "book.cobblepedia.pages.usage",
            "text": "book.cobblepedia.entries.spawnpokemon_command.usage"
        },
        {
            "type": "patchouli:relations",
            "entries": [
                "cobblepedia:pokemon_spawning"
            ]
        }
    ]
}
