{
    "name": "block.cobblemon.stripped_apricorn_wood",
    "category": "cobblepedia:apricorn_set",
    "icon": "cobblemon:stripped_apricorn_wood",
    "pages": [
        {
            "type": "patchouli:spotlight",
            "item": "cobblemon:stripped_apricorn_wood",
            "title": "block.cobblemon.stripped_apricorn_wood",
            "text": "book.cobblepedia.entries.stripped_apricorn_wood.text"
        },
        {
            "type": "patchouli:crafting",
            "recipe": "cobblemon:stripped_apricorn_wood",
            "title": "book.cobblepedia.pages.crafting"
        }
    ]
}
