{
    "name": "item.cobblemon.zinc",
    "category": "cobblepedia:consumables",
    "icon": "cobblemon:zinc",
    "sortnum": 7,
    "pages": [
        {
            "type": "patchouli:spotlight",
            "item": "cobblemon:zinc",
            "text": "book.cobblepedia.entries.zinc.text"
        },
        {
            "type": "patchouli:text",
            "title": "book.cobblepedia.pages.using",
            "text": "book.cobblepedia.entries.zinc.using"
        }
    ]
}
